gent-sysd-master-py3
Salt install method: git
# salt-call --versions-report
Salt Version:
          Salt: 3007.0+0na.daef761
 
Python Version:
        Python: 3.11.6 (main, Dec  3 2023, 17:23:49) [GCC 13.2.1 20230826]
 
Dependency Versions:
          cffi: 1.16.0
      cherrypy: 18.9.0
      dateutil: 2.8.2
     docker-py: Not Installed
         gitdb: Not Installed
     gitpython: Not Installed
        Jinja2: 3.1.3
       libgit2: Not Installed
  looseversion: 1.3.0
      M2Crypto: Not Installed
          Mako: Not Installed
       msgpack: 1.0.7
  msgpack-pure: Not Installed
  mysql-python: Not Installed
     packaging: 23.2
     pycparser: 2.21
      pycrypto: Not Installed
  pycryptodome: 3.20.0
        pygit2: Not Installed
  python-gnupg: 0.5.2
        PyYAML: 6.0.1
         PyZMQ: 25.1.2
        relenv: Not Installed
         smmap: Not Installed
       timelib: 0.3.0
       Tornado: 6.4
           ZMQ: 4.3.4
 
Salt Package Information:
  Package Type: Not Installed
 
System Versions:
          dist: gentoo 2.14 
        locale: utf-8
       machine: x86_64
       release: 5.4.109+
        system: Linux
       version: Gentoo 2.14 
 
# salt-call --local grains.item init kernel kernelrelease kernelversion locale_info lsb_distrib_codename lsb_distrib_id lsb_distrib_release os os_family osarch osbuild oscodename osfinger osfullname osmajorrelease osmanufacturer osrelease osrelease_info osversion pythonexecutable pythonpath pythonversion saltpath saltversion saltversioninfo systemd virtual virtual_subtype zmqversion
local:
    ----------
    init:
        unknown
    kernel:
        Linux
    kernelrelease:
        5.4.109+
    kernelversion:
        #1 SMP Wed Jun 16 20:00:10 PDT 2021
    locale_info:
        ----------
        defaultencoding:
            UTF-8
        defaultlanguage:
            en_US
        detectedencoding:
            utf-8
        timezone:
            -00
    lsb_distrib_codename:
        Gentoo Linux
    lsb_distrib_id:
        Gentoo
    lsb_distrib_release:
        2.14
    os:
        Gentoo
    os_family:
        Gentoo
    osarch:
        x86_64
    osbuild:
    oscodename:
        Gentoo Linux
    osfinger:
        Gentoo-2
    osfullname:
        Gentoo
    osmajorrelease:
        2
    osmanufacturer:
    osrelease:
        2.14
    osrelease_info:
        - 2
        - 14
    osversion:
    pythonexecutable:
        /usr/bin/python3.11
    pythonpath:
        - /usr/bin
        - /usr/lib/python311.zip
        - /usr/lib/python3.11
        - /usr/lib/python3.11/lib-dynload
        - /usr/lib/python3.11/site-packages
    pythonversion:
        - 3
        - 11
        - 6
        - final
        - 0
    saltpath:
        /usr/lib/python3.11/site-packages/salt
    saltversion:
        3007.0+0na.daef761
    saltversioninfo:
        - 3007
        - 0
    systemd:
        ----------
        features:
            +PAM -AUDIT -SELINUX -APPARMOR +IMA +SMACK +SECCOMP +GCRYPT -GNUTLS +OPENSSL +ACL +BLKID -CURL -ELFUTILS -FIDO2 +IDN2 -IDN -IPTC +KMOD -LIBCRYPTSETUP +LIBFDISK +PCRE2 -PWQUALITY -P11KIT -QRENCODE -TPM2 -BZIP2 +LZ4 -XZ -ZLIB +ZSTD -BPF_FRAMEWORK -XKBCOMMON +UTMP -SYSVINIT default-hierarchy=unified
        version:
            254
    virtual:
        container
    virtual_subtype:
        Docker
    zmqversion:
        4.3.4
# salt-call --local pkg.list_pkgs
local:
    ----------
    acct-group/adm:
        0-r2
    acct-group/audio:
        0-r2
    acct-group/cdrom:
        0-r2
    acct-group/dialout:
        0-r2
    acct-group/disk:
        0-r2
    acct-group/floppy:
        0-r1
    acct-group/input:
        0-r2
    acct-group/kmem:
        0-r2
    acct-group/kvm:
        0-r2
    acct-group/lp:
        0-r2
    acct-group/man:
        0-r2
    acct-group/messagebus:
        0-r2
    acct-group/nobody:
        0-r1
    acct-group/nullmail:
        0-r1
    acct-group/portage:
        0-r1
    acct-group/render:
        0-r2
    acct-group/root:
        0-r1
    acct-group/sgx:
        0-r1
    acct-group/sshd:
        0-r2
    acct-group/systemd-coredump:
        0-r2
    acct-group/systemd-journal:
        0-r2
    acct-group/systemd-journal-remote:
        0-r2
    acct-group/systemd-network:
        0-r2
    acct-group/systemd-oom:
        0-r1
    acct-group/systemd-resolve:
        0-r2
    acct-group/systemd-timesync:
        0-r2
    acct-group/tape:
        0-r2
    acct-group/tty:
        0-r2
    acct-group/usb:
        0-r2
    acct-group/users:
        0-r1
    acct-group/utmp:
        0-r2
    acct-group/video:
        0-r2
    acct-group/wheel:
        0-r2
    acct-user/man:
        1-r2
    acct-user/messagebus:
        0-r2
    acct-user/nobody:
        0-r1
    acct-user/nullmail:
        0-r1
    acct-user/portage:
        0-r2
    acct-user/root:
        0-r2
    acct-user/sshd:
        0-r2
    acct-user/systemd-coredump:
        0-r2
    acct-user/systemd-journal-remote:
        0-r2
    acct-user/systemd-network:
        0-r2
    acct-user/systemd-oom:
        0-r1
    acct-user/systemd-resolve:
        0-r2
    acct-user/systemd-timesync:
        0-r2
    app-admin/eselect:
        1.4.27
    app-admin/perl-cleaner:
        2.31
    app-admin/sudo:
        1.9.15_p2
    app-alternatives/awk:
        4
    app-alternatives/bc:
        0
    app-alternatives/bzip2:
        1
    app-alternatives/gzip:
        1
    app-alternatives/lex:
        0-r1
    app-alternatives/sh:
        0
    app-alternatives/tar:
        0
    app-alternatives/yacc:
        1-r2
    app-arch/bzip2:
        1.0.8-r4
    app-arch/gzip:
        1.13
    app-arch/libarchive:
        3.7.1
    app-arch/lz4:
        1.9.4
    app-arch/tar:
        1.35
    app-arch/unzip:
        6.0_p27-r1
    app-arch/xz-utils:
        5.4.5
    app-arch/zstd:
        1.5.5
    app-crypt/gnupg:
        2.2.41
    app-crypt/gpgme:
        1.22.0
    app-crypt/libb2:
        0.98.1-r3
    app-crypt/pinentry:
        1.2.1-r3
    app-crypt/rhash:
        1.4.3
    app-editors/nano:
        7.2-r1
    app-eselect/eselect-iptables:
        20220320
    app-eselect/eselect-lib-bin-symlink:
        0.1.1-r1
    app-eselect/eselect-pinentry:
        0.7.2-r1
    app-misc/ca-certificates:
        20230311.3.90
    app-misc/editor-wrapper:
        4-r1
    app-misc/mime-types:
        2.1.53
    app-misc/pax-utils:
        1.3.5
    app-portage/elt-patches:
        20221210
    app-portage/gemato:
        20.5
    app-portage/getuto:
        1.9.1
    app-portage/portage-utils:
        0.96.1
    app-shells/bash:
        5.1_p16-r6
    app-text/build-docbook-catalog:
        2.4
    app-text/docbook-xml-dtd:
        4.1.2-r7,4.2-r3,4.4-r3,4.5-r2
    app-text/docbook-xsl-ns-stylesheets:
        1.79.1
    app-text/docbook-xsl-stylesheets:
        1.79.1-r4
    app-text/manpager:
        1
    app-text/opensp:
        1.5.2-r10
    app-text/po4a:
        0.66
    app-text/sgml-common:
        0.6.3-r7
    app-text/xmlto:
        0.0.28-r11
    dev-build/cmake:
        3.27.7
    dev-build/make:
        4.4.1-r1
    dev-build/meson:
        1.2.3
    dev-build/meson-format-array:
        0
    dev-build/ninja:
        1.11.1-r2
    dev-db/sqlite:
        3.43.2
    dev-lang/perl:
        5.38.0-r1
    dev-lang/python:
        3.11.6,3.12.1
    dev-lang/python-exec:
        2.4.10
    dev-lang/python-exec-conf:
        2.4.6
    dev-lang/tcl:
        8.6.13-r1
    dev-libs/expat:
        2.5.0
    dev-libs/gmp:
        6.3.0
    dev-libs/jsoncpp:
        1.9.5
    dev-libs/libassuan:
        2.5.6
    dev-libs/libffi:
        3.4.4-r1
    dev-libs/libgcrypt:
        1.10.2
    dev-libs/libgpg-error:
        1.47
    dev-libs/libksba:
        1.6.4-r1
    dev-libs/libltdl:
        2.4.7-r1
    dev-libs/libpcre2:
        10.42-r1
    dev-libs/libpipeline:
        1.5.7
    dev-libs/libtasn1:
        4.19.0
    dev-libs/libunistring:
        1.1-r1
    dev-libs/libuv:
        1.46.0
    dev-libs/libxml2:
        2.11.5
    dev-libs/libxslt:
        1.1.38
    dev-libs/mpc:
        1.3.1
    dev-libs/mpfr:
        4.2.1
    dev-libs/nettle:
        3.9.1
    dev-libs/npth:
        1.6-r1
    dev-libs/openssl:
        3.0.11
    dev-libs/popt:
        1.19
    dev-perl/Authen-SASL:
        2.170.0
    dev-perl/Digest-HMAC:
        1.40.0
    dev-perl/Error:
        0.170.290
    dev-perl/IO-Socket-SSL:
        2.83.0
    dev-perl/Locale-gettext:
        1.70.0-r1
    dev-perl/MIME-Charset:
        1.13.1
    dev-perl/MailTools:
        2.210.0
    dev-perl/Module-Build:
        0.423.400
    dev-perl/Mozilla-CA:
        20999999-r1
    dev-perl/Net-SSLeay:
        1.920.0-r1
    dev-perl/Pod-Parser:
        1.660.0
    dev-perl/SGMLSpm:
        1.1-r2
    dev-perl/TermReadKey:
        2.380.0-r1
    dev-perl/Text-CharWidth:
        0.40.0-r2
    dev-perl/Text-WrapI18N:
        0.60.0-r2
    dev-perl/TimeDate:
        2.330.0-r1
    dev-perl/Unicode-LineBreak:
        2019.1.0
    dev-perl/YAML-Tiny:
        1.740.0
    dev-python/PySocks:
        1.7.1-r2
    dev-python/calver:
        2022.06.26
    dev-python/certifi:
        3021.3.16-r4
    dev-python/charset-normalizer:
        3.3.2
    dev-python/cython:
        3.0.5
    dev-python/editables:
        0.5
    dev-python/ensurepip-pip:
        23.3.1
    dev-python/ensurepip-setuptools:
        69.0.2
    dev-python/ensurepip-wheels:
        100
    dev-python/flit-core:
        3.9.0
    dev-python/gentoo-common:
        1
    dev-python/gpep517:
        15
    dev-python/hatchling:
        1.18.0
    dev-python/idna:
        3.6
    dev-python/installer:
        0.7.0
    dev-python/jaraco-context:
        4.3.0
    dev-python/jaraco-functools:
        4.0.0
    dev-python/jaraco-text:
        3.11.1-r1
    dev-python/jinja:
        3.1.2
    dev-python/lxml:
        4.9.3-r2
    dev-python/markupsafe:
        2.1.3
    dev-python/more-itertools:
        10.1.0
    dev-python/nspektr:
        0.5.0
    dev-python/ordered-set:
        4.1.0
    dev-python/packaging:
        23.2
    dev-python/pathspec:
        0.11.2
    dev-python/pip:
        23.3.2
    dev-python/platformdirs:
        4.0.0
    dev-python/pluggy:
        1.3.0
    dev-python/pyparsing:
        3.1.1
    dev-python/requests:
        2.31.0
    dev-python/setuptools:
        69.0.2-r1
    dev-python/setuptools-scm:
        8.0.4
    dev-python/tomli:
        2.0.1-r1
    dev-python/trove-classifiers:
        2023.11.29
    dev-python/typing-extensions:
        4.8.0
    dev-python/urllib3:
        2.1.0
    dev-python/wheel:
        0.41.3
    dev-util/gperf:
        3.1-r1
    dev-util/gtk-doc-am:
        1.33.2
    dev-util/pkgconf:
        1.8.1
    dev-util/re2c:
        2.2
    dev-vcs/git:
        2.43.0
    mail-mta/nullmailer:
        2.2-r2
    net-dns/c-ares:
        1.21.0
    net-dns/libidn2:
        2.3.4-r1
    net-firewall/iptables:
        1.8.9
    net-libs/gnutls:
        3.8.0
    net-libs/libmnl:
        1.0.5
    net-libs/libnsl:
        2.0.0-r1
    net-libs/libtirpc:
        1.3.4
    net-misc/curl:
        8.4.0
    net-misc/iputils:
        20221126-r1
    net-misc/openssh:
        9.4_p1-r1
    net-misc/rsync:
        3.2.7-r2
    net-misc/wget:
        1.21.4
    perl-core/File-Temp:
        0.231.100
    sec-keys/openpgp-keys-gentoo-release:
        20230329
    sys-apps/acl:
        2.3.1-r2
    sys-apps/attr:
        2.5.1-r2
    sys-apps/baselayout:
        2.14
    sys-apps/coreutils:
        9.3-r3
    sys-apps/dbus:
        1.15.6
    sys-apps/debianutils:
        5.8
    sys-apps/diffutils:
        3.10
    sys-apps/file:
        5.45-r3
    sys-apps/findutils:
        4.9.0-r2
    sys-apps/gawk:
        5.2.2
    sys-apps/gentoo-functions:
        0.19
    sys-apps/gentoo-systemd-integration:
        9
    sys-apps/grep:
        3.11
    sys-apps/groff:
        1.22.4
    sys-apps/help2man:
        1.49.3
    sys-apps/install-xattr:
        0.8-r1
    sys-apps/iproute2:
        6.5.0
    sys-apps/kbd:
        2.6.1
    sys-apps/kmod:
        30-r1
    sys-apps/less:
        633
    sys-apps/locale-gen:
        2.23-r1
    sys-apps/man-db:
        2.12.0
    sys-apps/man-pages:
        6.05.01
    sys-apps/net-tools:
        2.10
    sys-apps/portage:
        3.0.56-r1
    sys-apps/sandbox:
        2.38
    sys-apps/sed:
        4.9
    sys-apps/shadow:
        4.13-r4
    sys-apps/systemd:
        254.5-r1
    sys-apps/texinfo:
        7.0.3
    sys-apps/util-linux:
        2.38.1-r3
    sys-apps/which:
        2.21
    sys-auth/pambase:
        20220214
    sys-auth/passwdqc:
        2.0.3
    sys-devel/autoconf:
        2.71-r6
    sys-devel/autoconf-archive:
        2023.02.20
    sys-devel/autoconf-wrapper:
        20221207-r1
    sys-devel/automake:
        1.16.5-r1
    sys-devel/automake-wrapper:
        20221207
    sys-devel/bc:
        1.07.1-r6
    sys-devel/binutils:
        2.40-r9
    sys-devel/binutils-config:
        5.5
    sys-devel/bison:
        3.8.2-r2
    sys-devel/flex:
        2.6.4-r6
    sys-devel/gcc:
        13.2.1_p20230826
    sys-devel/gcc-config:
        2.11
    sys-devel/gettext:
        0.21.1
    sys-devel/gnuconfig:
        20230731
    sys-devel/libtool:
        2.4.7-r1
    sys-devel/m4:
        1.4.19-r2
    sys-devel/patch:
        2.7.6-r5
    sys-fs/e2fsprogs:
        1.47.0-r2
    sys-fs/udev-init-scripts:
        35
    sys-kernel/installkernel:
        7
    sys-kernel/linux-headers:
        6.1
    sys-libs/gdbm:
        1.23
    sys-libs/glibc:
        2.37-r7
    sys-libs/libcap:
        2.69
    sys-libs/libseccomp:
        2.5.4
    sys-libs/libxcrypt:
        4.4.36
    sys-libs/ncurses:
        6.4_p20230401
    sys-libs/pam:
        1.5.3
    sys-libs/readline:
        8.1_p2-r1
    sys-libs/timezone-data:
        2023c-r1
    sys-libs/zlib:
        1.3-r1
    sys-process/procps:
        3.3.17-r2
    sys-process/psmisc:
        23.6
    virtual/acl:
        0-r2
    virtual/dev-manager:
        0-r2
    virtual/editor:
        0-r6
    virtual/libc:
        1-r1
    virtual/libcrypt:
        2-r1
    virtual/libiconv:
        0-r2
    virtual/libintl:
        0-r2
    virtual/libudev:
        251-r2
    virtual/logger:
        0-r1
    virtual/man:
        0-r4
    virtual/mta:
        1-r2
    virtual/openssh:
        0
    virtual/os-headers:
        0-r2
    virtual/package-manager:
        1
    virtual/pager:
        0-r1
    virtual/perl-CPAN:
        2.360.0
    virtual/perl-CPAN-Meta:
        2.150.10-r7
    virtual/perl-CPAN-Meta-YAML:
        0.18.0-r9
    virtual/perl-Carp:
        1.540.0
    virtual/perl-Data-Dumper:
        2.188.0
    virtual/perl-Digest-MD5:
        2.580.100_rc
    virtual/perl-Digest-SHA:
        6.40.0
    virtual/perl-Encode:
        3.190.0
    virtual/perl-Exporter:
        5.770.0-r1
    virtual/perl-ExtUtils-CBuilder:
        0.280.238
    virtual/perl-ExtUtils-Install:
        2.220.0
    virtual/perl-ExtUtils-MakeMaker:
        7.700.0
    virtual/perl-ExtUtils-Manifest:
        1.730.0-r2
    virtual/perl-ExtUtils-ParseXS:
        3.510.0
    virtual/perl-File-Spec:
        3.880.0
    virtual/perl-File-Temp:
        0.231.100
    virtual/perl-Getopt-Long:
        2.540.0
    virtual/perl-IO:
        1.520.0
    virtual/perl-JSON-PP:
        4.160.0-r1
    virtual/perl-MIME-Base64:
        3.160.100_rc
    virtual/perl-Module-Metadata:
        1.0.37-r3
    virtual/perl-Parse-CPAN-Meta:
        2.150.10-r7
    virtual/perl-Perl-OSType:
        1.10.0-r7
    virtual/perl-Scalar-List-Utils:
        1.630.0
    virtual/perl-Test-Harness:
        3.440.0-r1
    virtual/perl-Text-ParseWords:
        3.310.0-r1
    virtual/perl-libnet:
        3.150.0
    virtual/perl-podlators:
        5.10.0
    virtual/perl-version:
        0.992.900-r1
    virtual/pkgconfig:
        2-r1
    virtual/service-manager:
        1-r1
    virtual/ssh:
        0-r2
    virtual/tmpfiles:
        0-r5
    virtual/udev:
        217-r7
# salt-call --local pip.list
local:
    ----------
    CherryPy:
        18.9.0
    Cython:
        3.0.5
    Jinja2:
        3.1.2
    MarkupSafe:
        2.1.3
    PySocks:
        1.7.1
    PyYAML:
        6.0.1
    aiohttp:
        3.9.1
    aiosignal:
        1.3.1
    annotated-types:
        0.6.0
    attrs:
        23.2.0
    autocommand:
        2.2.2
    calver:
        2023.10.15
    certifi:
        2023.11.17
    certifi-system-store:
        3021.3.16
    cffi:
        1.16.0
    charset-normalizer:
        3.3.2
    cheroot:
        10.0.0
    contextvars:
        2.4
    cryptography:
        41.0.7
    distro:
        1.9.0
    editables:
        0.5
    flit_core:
        3.9.0
    frozenlist:
        1.4.1
    gemato:
        20.5
    hatchling:
        1.18.0
    idna:
        3.6
    immutables:
        0.20
    importlib-metadata:
        7.0.1
    inflect:
        7.0.0
    installer:
        0.7.0
    jaraco.collections:
        5.0.0
    jaraco.context:
        4.3.0
    jaraco.functools:
        4.0.0
    jaraco.text:
        3.11.1
    jmespath:
        1.0.1
    looseversion:
        1.3.0
    lxml:
        4.9.3
    meson:
        1.2.3
    more-itertools:
        10.1.0
    msgpack:
        1.0.7
    multidict:
        6.0.4
    nspektr:
        0.5.0
    ordered-set:
        4.1.0
    packaging:
        23.2
    pathspec:
        0.11.2
    pip:
        23.3.2
    platformdirs:
        4.0.0
    pluggy:
        1.3.0
    portend:
        3.2.0
    psutil:
        5.9.7
    pyOpenSSL:
        23.3.0
    pycparser:
        2.21
    pycryptodomex:
        3.20.0
    pydantic:
        2.5.3
    pydantic_core:
        2.14.6
    pyparsing:
        3.1.1
    python-dateutil:
        2.8.2
    python-gnupg:
        0.5.2
    pytz:
        2023.3.post1
    pyzmq:
        25.1.2
    requests:
        2.31.0
    rpm_vercmp:
        0.1.2
    salt:
        3007.0+0na.daef761
    setproctitle:
        1.3.3
    setuptools:
        69.0.3
    setuptools-scm:
        8.0.4
    six:
        1.16.0
    tempora:
        5.5.0
    timelib:
        0.3.0
    tomli:
        2.0.1
    tornado:
        6.4
    trove-classifiers:
        2023.11.29
    typing_extensions:
        4.8.0
    urllib3:
        2.1.0
    wheel:
        0.42.0
    yarl:
        1.9.4
    zc.lockfile:
        3.0.post1
    zipp:
        3.17.0
# salt-call --local locale.list_avail
local:
    - C
    - C.utf8
    - POSIX
    - en_US.utf8
