orac-08.0-master-py3
Salt install method: git
# salt-call --versions-report
Salt Version:
          Salt: 3007.0+0na.daef761
 
Python Version:
        Python: 3.11.5 (main, Nov 15 2023, 18:13:17) [GCC 8.5.0 20210514 (Red Hat 8.5.0-20.0.1)]
 
Dependency Versions:
          cffi: 1.16.0
      cherrypy: 18.9.0
      dateutil: 2.8.2
     docker-py: Not Installed
         gitdb: Not Installed
     gitpython: Not Installed
        Jinja2: 3.1.3
       libgit2: Not Installed
  looseversion: 1.3.0
      M2Crypto: Not Installed
          Mako: Not Installed
       msgpack: 1.0.7
  msgpack-pure: Not Installed
  mysql-python: Not Installed
     packaging: 23.2
     pycparser: 2.21
      pycrypto: Not Installed
  pycryptodome: 3.20.0
        pygit2: Not Installed
  python-gnupg: 0.5.2
        PyYAML: 6.0.1
         PyZMQ: 25.1.2
        relenv: Not Installed
         smmap: Not Installed
       timelib: 0.3.0
       Tornado: 6.4
           ZMQ: 4.3.4
 
Salt Package Information:
  Package Type: Not Installed
 
System Versions:
          dist: oracle 8.9 
        locale: utf-8
       machine: x86_64
       release: 5.4.109+
        system: Linux
       version: Oracle Linux Server 8.9 
 
# salt-call --local grains.item init kernel kernelrelease kernelversion locale_info lsb_distrib_codename lsb_distrib_id lsb_distrib_release os os_family osarch osbuild oscodename osfinger osfullname osmajorrelease osmanufacturer osrelease osrelease_info osversion pythonexecutable pythonpath pythonversion saltpath saltversion saltversioninfo systemd virtual virtual_subtype zmqversion
local:
    ----------
    init:
        unknown
    kernel:
        Linux
    kernelrelease:
        5.4.109+
    kernelversion:
        #1 SMP Wed Jun 16 20:00:10 PDT 2021
    locale_info:
        ----------
        defaultencoding:
            UTF-8
        defaultlanguage:
            en_US
        detectedencoding:
            utf-8
        timezone:
            UTC
    lsb_distrib_codename:
        Oracle Linux Server 8.9
    lsb_distrib_id:
        Oracle Linux Server
    lsb_distrib_release:
        8.9
    os:
        OEL
    os_family:
        RedHat
    osarch:
        x86_64
    osbuild:
    oscodename:
        Oracle Linux Server 8.9
    osfinger:
        Oracle Linux Server-8
    osfullname:
        Oracle Linux Server
    osmajorrelease:
        8
    osmanufacturer:
    osrelease:
        8.9
    osrelease_info:
        - 8
        - 9
    osversion:
    pythonexecutable:
        /usr/bin/python3.11
    pythonpath:
        - /usr/bin
        - /usr/lib64/python311.zip
        - /usr/lib64/python3.11
        - /usr/lib64/python3.11/lib-dynload
        - /usr/lib64/python3.11/site-packages
        - /usr/lib/python3.11/site-packages
    pythonversion:
        - 3
        - 11
        - 5
        - final
        - 0
    saltpath:
        /usr/lib/python3.11/site-packages/salt
    saltversion:
        3007.0+0na.daef761
    saltversioninfo:
        - 3007
        - 0
    systemd:
        ----------
        features:
            +PAM +AUDIT +SELINUX +IMA -APPARMOR +SMACK +SYSVINIT +UTMP +LIBCRYPTSETUP +GCRYPT +GNUTLS +ACL +XZ +LZ4 +SECCOMP +BLKID +ELFUTILS +KMOD +IDN2 -IDN +PCRE2 default-hierarchy=legacy
        version:
            239
    virtual:
        container
    virtual_subtype:
        Docker
    zmqversion:
        4.3.4
# salt-call --local pkg.list_pkgs
local:
    ----------
    acl:
        2.2.53-1.el8
    audit-libs:
        3.0.7-5.el8
    basesystem:
        11-5.el8
    bash:
        4.4.20-4.el8_6
    bind-export-libs:
        32:9.11.36-11.el8_9
    binutils:
        2.30-123.0.1.el8
    brotli:
        1.0.6-3.el8
    bzip2-libs:
        1.0.6-26.el8
    ca-certificates:
        2023.2.60_v7.0.306-80.0.el8_8
    chkconfig:
        1.19.2-1.0.1.el8
    coreutils:
        8.30-15.0.1.el8
    coreutils-common:
        8.30-15.0.1.el8
    cpp:
        8.5.0-20.0.1.el8
    cracklib:
        2.9.6-15.el8
    cracklib-dicts:
        2.9.6-15.el8
    crypto-policies:
        20230731-1.git3177e06.el8
    cryptsetup-libs:
        2.3.7-7.el8
    curl:
        7.61.1-33.el8
    cyrus-sasl-lib:
        2.1.27-6.el8_5
    dbus:
        1:1.12.8-26.0.1.el8
    dbus-common:
        1:1.12.8-26.0.1.el8
    dbus-daemon:
        1:1.12.8-26.0.1.el8
    dbus-glib:
        0.110-2.el8
    dbus-libs:
        1:1.12.8-26.0.1.el8
    dbus-tools:
        1:1.12.8-26.0.1.el8
    device-mapper:
        8:1.02.181-13.0.2.el8_9
    device-mapper-event:
        8:1.02.181-13.0.2.el8_9
    device-mapper-event-libs:
        8:1.02.181-13.0.2.el8_9
    device-mapper-libs:
        8:1.02.181-13.0.2.el8_9
    device-mapper-multipath:
        0.8.4-39.el8
    device-mapper-multipath-libs:
        0.8.4-39.el8
    device-mapper-persistent-data:
        0.9.0-7.el8
    dhcp-client:
        12:4.3.6-49.el8
    dhcp-common:
        12:4.3.6-49.el8
    dhcp-libs:
        12:4.3.6-49.el8
    diffutils:
        3.6-6.el8
    dnf:
        4.7.0-19.0.1.el8
    dnf-data:
        4.7.0-19.0.1.el8
    dnf-plugins-core:
        4.0.21-23.0.1.el8
    elfutils-default-yama-scope:
        0.189-3.el8
    elfutils-libelf:
        0.189-3.el8
    elfutils-libs:
        0.189-3.el8
    emacs-filesystem:
        1:26.1-11.el8
    expat:
        2.2.5-11.0.1.el8
    file-libs:
        5.33-25.el8
    filesystem:
        3.8-6.el8
    findutils:
        1:4.6.0-21.el8
    gawk:
        4.2.1-4.el8
    gcc:
        8.5.0-20.0.1.el8
    gdbm:
        1:1.18-2.el8
    gdbm-libs:
        1:1.18-2.el8
    git:
        2.39.3-1.el8_8
    git-core:
        2.39.3-1.el8_8
    git-core-doc:
        2.39.3-1.el8_8
    glib2:
        2.56.4-161.el8
    glibc:
        2.28-236.0.1.el8.7
    glibc-common:
        2.28-236.0.1.el8.7
    glibc-devel:
        2.28-236.0.1.el8.7
    glibc-headers:
        2.28-236.0.1.el8.7
    glibc-langpack-en:
        2.28-236.0.1.el8.7
    gmp:
        1:6.1.2-10.el8
    gnupg2:
        2.2.20-3.el8_6
    gnutls:
        3.6.16-8.el8_9
    gpg-pubkey.(none):
        73d76b3f-63dace60,ad986da3-5cabf60d
    gpgme:
        1.13.1-11.el8
    grep:
        3.1-6.el8
    groff-base:
        1.22.3-18.el8
    gzip:
        1.9-13.el8_5
    ima-evm-utils:
        1.3.2-12.el8
    info:
        6.5-7.el8
    initscripts:
        10.00.18-1.0.1.el8
    ipcalc:
        0.2.4-4.el8
    iproute:
        6.2.0-5.el8_9
    iputils:
        20180629-11.el8
    isl:
        0.16.1-6.el8
    json-c:
        0.13.1-3.el8
    kbd:
        2.0.4-11.el8
    kbd-legacy:
        2.0.4-11.el8
    kbd-misc:
        2.0.4-11.el8
    kernel-headers:
        4.18.0-513.11.0.1.el8_9
    keyutils-libs:
        1.5.10-9.el8
    keyutils-libs-devel:
        1.5.10-9.el8
    kmod:
        25-19.0.2.el8
    kmod-libs:
        25-19.0.2.el8
    kpartx:
        0.8.4-39.el8
    krb5-devel:
        1.18.2-26.0.1.el8_9
    krb5-libs:
        1.18.2-26.0.1.el8_9
    less:
        530-1.el8
    libacl:
        2.2.53-1.el8
    libaio:
        0.3.112-1.el8
    libarchive:
        3.3.3-5.el8
    libassuan:
        2.5.1-3.el8
    libattr:
        2.4.48-3.el8
    libblkid:
        2.32.1-43.0.1.el8
    libbpf:
        0.5.0-1.el8
    libcap:
        2.48-6.el8_9
    libcap-ng:
        0.7.11-1.el8
    libcom_err:
        1.45.6-5.el8
    libcom_err-devel:
        1.45.6-5.el8
    libcomps:
        0.1.18-1.el8
    libcurl:
        7.61.1-33.el8
    libdb:
        5.3.28-42.0.1.el8_4
    libdb-utils:
        5.3.28-42.0.1.el8_4
    libdnf:
        0.63.0-17.0.1.el8_9
    libedit:
        3.1-23.20170329cvs.el8
    libestr:
        0.1.10-3.el8
    libfastjson:
        0.99.9-2.el8
    libfdisk:
        2.32.1-43.0.1.el8
    libffi:
        3.1-24.el8
    libgcc:
        8.5.0-20.0.1.el8
    libgcrypt:
        1.8.5-7.el8_6
    libgomp:
        8.5.0-20.0.1.el8
    libgpg-error:
        1.31-1.el8
    libidn2:
        2.2.0-1.el8
    libkadm5:
        1.18.2-26.0.1.el8_9
    libksba:
        1.3.5-9.el8_7
    libmnl:
        1.0.4-6.el8
    libmodulemd:
        2.13.0-1.el8
    libmount:
        2.32.1-43.0.1.el8
    libmpc:
        1.1.0-9.1.el8
    libnghttp2:
        1.33.0-5.el8_9
    libnsl2:
        1.2.0-2.20180605git4a062cf.el8
    libpkgconf:
        1.4.2-1.el8
    libpsl:
        0.20.2-6.el8
    libpwquality:
        1.4.4-6.el8
    librepo:
        1.14.2-4.el8
    libreport-filesystem:
        2.9.5-15.0.4.el8
    libseccomp:
        2.5.2-1.el8
    libselinux:
        2.9-8.el8
    libselinux-devel:
        2.9-8.el8
    libselinux-utils:
        2.9-8.el8
    libsemanage:
        2.9-9.el8_6
    libsepol:
        2.9-3.el8
    libsepol-devel:
        2.9-3.el8
    libsigsegv:
        2.11-5.el8
    libsmartcols:
        2.32.1-43.0.1.el8
    libsolv:
        0.7.20-6.el8
    libssh:
        0.9.6-10.el8_8
    libssh-config:
        0.9.6-10.el8_8
    libstdc++:
        8.5.0-20.0.1.el8
    libtasn1:
        4.13-4.el8_7
    libtirpc:
        1.1.4-8.el8
    libunistring:
        0.9.9-3.el8
    libusbx:
        1.0.23-4.el8
    libuser:
        0.62-25.el8
    libutempter:
        1.1.6-14.el8
    libuuid:
        2.32.1-43.0.1.el8
    libverto:
        0.3.2-2.el8
    libverto-devel:
        0.3.2-2.el8
    libxcrypt:
        4.1.1-6.el8
    libxcrypt-devel:
        4.1.1-6.el8
    libxml2:
        2.9.7-18.el8_9
    libyaml:
        0.1.7-5.el8
    libzstd:
        1.4.4-1.0.1.el8
    logrotate:
        3.14.0-6.el8
    lua-libs:
        5.3.4-12.el8
    lvm2:
        8:2.03.14-13.0.2.el8_9
    lvm2-libs:
        8:2.03.14-13.0.2.el8_9
    lz4-libs:
        1.8.3-3.el8_4
    mpdecimal:
        2.5.1-3.el8
    mpfr:
        3.1.6-1.el8
    ncurses:
        6.1-10.20180224.el8
    ncurses-base:
        6.1-10.20180224.el8
    ncurses-libs:
        6.1-10.20180224.el8
    net-tools:
        2.0-0.52.20160912git.el8
    nettle:
        3.4.1-7.el8
    npth:
        1.5-4.el8
    openldap:
        2.4.46-18.el8
    openssh:
        8.0p1-19.el8_8
    openssh-clients:
        8.0p1-19.el8_8
    openssh-server:
        8.0p1-19.el8_8
    openssl:
        1:1.1.1k-12.el8_9
    openssl-devel:
        1:1.1.1k-12.el8_9
    openssl-libs:
        1:1.1.1k-12.el8_9
    oraclelinux-release:
        8:8.9-1.0.8.el8
    oraclelinux-release-el8:
        1.0-35.el8
    p11-kit:
        0.23.22-1.el8
    p11-kit-trust:
        0.23.22-1.el8
    pam:
        1.3.1-27.el8
    passwd:
        0.80-4.el8
    pcre:
        8.42-6.el8
    pcre2:
        10.32-3.el8_6
    pcre2-devel:
        10.32-3.el8_6
    pcre2-utf16:
        10.32-3.el8_6
    pcre2-utf32:
        10.32-3.el8_6
    perl-Carp:
        1.42-396.el8
    perl-Data-Dumper:
        2.167-399.el8
    perl-Digest:
        1.17-395.el8
    perl-Digest-MD5:
        2.55-396.el8
    perl-Encode:
        4:2.97-3.el8
    perl-Errno:
        1.28-422.el8
    perl-Error:
        1:0.17025-2.el8
    perl-Exporter:
        5.72-396.el8
    perl-File-Path:
        2.15-2.el8
    perl-File-Temp:
        0.230.600-1.el8
    perl-Getopt-Long:
        1:2.50-4.el8
    perl-Git:
        2.39.3-1.el8_8
    perl-HTTP-Tiny:
        0.074-2.el8
    perl-IO:
        1.38-422.el8
    perl-IO-Socket-IP:
        0.39-5.el8
    perl-IO-Socket-SSL:
        2.066-4.module+el8.6.0+20623+f0897f98
    perl-MIME-Base64:
        3.15-396.el8
    perl-Mozilla-CA:
        20160104-7.0.1.module+el8.3.0+21136+b437fca9
    perl-Net-SSLeay:
        1.88-2.module+el8.6.0+20623+f0897f98
    perl-PathTools:
        3.74-1.el8
    perl-Pod-Escapes:
        1:1.07-395.el8
    perl-Pod-Perldoc:
        3.28-396.el8
    perl-Pod-Simple:
        1:3.35-395.el8
    perl-Pod-Usage:
        4:1.69-395.el8
    perl-Scalar-List-Utils:
        3:1.49-2.el8
    perl-Socket:
        4:2.027-3.el8
    perl-Storable:
        1:3.11-3.el8
    perl-Term-ANSIColor:
        4.06-396.el8
    perl-Term-Cap:
        1.17-395.el8
    perl-TermReadKey:
        2.37-7.el8
    perl-Text-ParseWords:
        3.30-395.el8
    perl-Text-Tabs+Wrap:
        2013.0523-395.el8
    perl-Time-Local:
        1:1.280-1.el8
    perl-URI:
        1.73-3.el8
    perl-Unicode-Normalize:
        1.25-396.el8
    perl-constant:
        1.33-396.el8
    perl-interpreter:
        4:5.26.3-422.el8
    perl-libnet:
        3.11-3.el8
    perl-libs:
        4:5.26.3-422.el8
    perl-macros:
        4:5.26.3-422.el8
    perl-parent:
        1:0.237-1.el8
    perl-podlators:
        4.11-1.el8
    perl-threads:
        1:2.21-2.el8
    perl-threads-shared:
        1.58-2.el8
    pkgconf:
        1.4.2-1.el8
    pkgconf-m4:
        1.4.2-1.el8
    pkgconf-pkg-config:
        1.4.2-1.el8
    platform-python:
        3.6.8-56.0.1.el8_9.2
    platform-python-devel:
        3.6.8-56.0.1.el8_9.2
    platform-python-pip:
        9.0.3-23.el8
    platform-python-setuptools:
        39.2.0-7.el8
    policycoreutils:
        2.9-24.0.1.el8
    popt:
        1.18-1.el8
    procps-ng:
        3.3.15-14.0.1.el8
    psmisc:
        23.1-5.el8
    publicsuffix-list-dafsa:
        20180723-1.el8
    python-rpm-macros:
        3-45.el8
    python-srpm-macros:
        3-45.el8
    python3-dateutil:
        1:2.6.1-6.el8
    python3-dbus:
        1.2.4-15.el8
    python3-dnf:
        4.7.0-19.0.1.el8
    python3-dnf-plugins-core:
        4.0.21-23.0.1.el8
    python3-gpg:
        1.13.1-11.el8
    python3-hawkey:
        0.63.0-17.0.1.el8_9
    python3-libcomps:
        0.1.18-1.el8
    python3-libdnf:
        0.63.0-17.0.1.el8_9
    python3-libs:
        3.6.8-56.0.1.el8_9.2
    python3-pip:
        9.0.3-23.el8
    python3-pip-wheel:
        9.0.3-23.el8
    python3-rpm:
        4.14.3-26.el8
    python3-rpm-generators:
        5-8.el8
    python3-rpm-macros:
        3-45.el8
    python3-setuptools:
        39.2.0-7.el8
    python3-setuptools-wheel:
        39.2.0-7.el8
    python3-six:
        1.11.0-8.el8
    python3-systemd:
        234-8.el8
    python3.11:
        3.11.5-1.el8_9
    python3.11-devel:
        3.11.5-1.el8_9
    python3.11-libs:
        3.11.5-1.el8_9
    python3.11-pip:
        22.3.1-4.el8
    python3.11-pip-wheel:
        22.3.1-4.el8
    python3.11-setuptools:
        65.5.1-2.el8
    python3.11-setuptools-wheel:
        65.5.1-2.el8
    python36:
        3.6.8-38.module+el8.9.0+90104+968a3e84
    python36-devel:
        3.6.8-38.module+el8.9.0+90104+968a3e84
    readline:
        7.0-10.el8
    redhat-release:
        2:8.9-0.1.0.1.el8
    rootfiles:
        8.1-22.el8
    rpm:
        4.14.3-26.el8
    rpm-build-libs:
        4.14.3-26.el8
    rpm-libs:
        4.14.3-26.el8
    rsyslog:
        8.2102.0-15.el8
    sed:
        4.5-5.el8
    setup:
        2.12.2-9.el8
    shadow-utils:
        2:4.6-19.el8
    sqlite-libs:
        3.26.0-18.0.1.el8_8
    sudo:
        1.8.29-10.el8
    swig:
        3.0.12-19.module+el8.3.0+7654+9c81efad
    systemd:
        239-78.0.3.el8
    systemd-libs:
        239-78.0.3.el8
    systemd-pam:
        239-78.0.3.el8
    systemd-udev:
        239-78.0.3.el8
    tar:
        2:1.30-9.el8
    tpm2-tss:
        2.3.2-5.el8
    trousers:
        0.3.15-1.el8
    trousers-lib:
        0.3.15-1.el8
    tzdata:
        2023d-1.0.1.el8
    userspace-rcu:
        0.10.1-4.el8
    util-linux:
        2.32.1-43.0.1.el8
    vim-minimal:
        2:8.0.1763-19.0.1.el8_6.4
    which:
        2.21-20.el8
    xz-libs:
        5.2.4-4.el8_6
    yum:
        4.7.0-19.0.1.el8
    yum-utils:
        4.0.21-23.0.1.el8
    zlib:
        1.2.11-25.el8
    zlib-devel:
        1.2.11-25.el8
# salt-call --local pip.list
local:
    ----------
    CherryPy:
        18.9.0
    Jinja2:
        3.1.3
    MarkupSafe:
        2.1.3
    PyYAML:
        6.0.1
    aiohttp:
        3.9.1
    aiosignal:
        1.3.1
    annotated-types:
        0.6.0
    attrs:
        23.2.0
    autocommand:
        2.2.2
    certifi:
        2023.11.17
    cffi:
        1.16.0
    charset-normalizer:
        3.3.2
    cheroot:
        10.0.0
    contextvars:
        2.4
    cryptography:
        41.0.7
    distro:
        1.9.0
    frozenlist:
        1.4.1
    idna:
        3.6
    immutables:
        0.20
    importlib-metadata:
        7.0.1
    inflect:
        7.0.0
    jaraco.collections:
        5.0.0
    jaraco.context:
        4.3.0
    jaraco.functools:
        4.0.0
    jaraco.text:
        3.12.0
    jmespath:
        1.0.1
    looseversion:
        1.3.0
    more-itertools:
        10.2.0
    msgpack:
        1.0.7
    multidict:
        6.0.4
    packaging:
        23.2
    pip:
        22.3.1
    portend:
        3.2.0
    psutil:
        5.9.7
    pyOpenSSL:
        23.3.0
    pycparser:
        2.21
    pycryptodomex:
        3.20.0
    pydantic:
        2.5.3
    pydantic_core:
        2.14.6
    python-dateutil:
        2.8.2
    python-gnupg:
        0.5.2
    pytz:
        2023.3.post1
    pyzmq:
        25.1.2
    requests:
        2.31.0
    rpm_vercmp:
        0.1.2
    salt:
        3007.0+0na.daef761
    setproctitle:
        1.3.3
    setuptools:
        65.5.1
    six:
        1.16.0
    tempora:
        5.5.0
    timelib:
        0.3.0
    tornado:
        6.4
    typing_extensions:
        4.9.0
    urllib3:
        2.1.0
    wheel:
        0.42.0
    yarl:
        1.9.4
    zc.lockfile:
        3.0.post1
    zipp:
        3.17.0
# salt-call --local locale.list_avail
local:
    - C
    - C.utf8
    - POSIX
    - en_AG
    - en_AU
    - en_AU.utf8
    - en_BW
    - en_BW.utf8
    - en_CA
    - en_CA.utf8
    - en_DK
    - en_DK.utf8
    - en_GB
    - en_GB.iso885915
    - en_GB.utf8
    - en_HK
    - en_HK.utf8
    - en_IE
    - en_IE.utf8
    - en_IE@euro
    - en_IL
    - en_IN
    - en_NG
    - en_NZ
    - en_NZ.utf8
    - en_PH
    - en_PH.utf8
    - en_SC.utf8
    - en_SG
    - en_SG.utf8
    - en_US
    - en_US.iso885915
    - en_US.utf8
    - en_US.utf8@ampm
    - en_US@ampm
    - en_ZA
    - en_ZA.utf8
    - en_ZM
    - en_ZW
    - en_ZW.utf8
